…
```r
nanno_1%>%
  select(-c(x8))
```

```
## # A tibble: 28,787 × 7
##    relative_time ph_7_6_2 ph_8_2_3 ph_7_6_4 ph_8_2_5 ph_8_2_6 ph_7_6_7
##            <dbl>    <dbl>    <dbl>    <dbl>    <dbl>    <dbl>    <dbl>
##  1           0       7.42     8.01     7.42     7.87     8.10     7.21
##  2          60.0     7.43     8.03     7.44     7.88     8.12     7.22
##  3         120.      7.43     8.03     7.44     7.88     8.12     7.22
##  4         180.      7.43     8.03     7.44     7.88     8.12     7.22
##  5         240.      7.43     8.03     7.43     7.88     8.12     7.21
##  6         300.      7.44     8.03     7.43     7.88     8.12     7.21
##  7         360.      7.44     8.03     7.43     7.88     8.12     7.21
##  8         420.      7.44     8.03     7.43     7.88     8.11     7.21
##  9         480.      7.44     8.03     7.43     7.88     8.11     7.20
## 10         540.      7.44     8.01     7.43     7.87     8.11     7.20
## # … with 28,777 more rows
```
…
```r
nanno_1
```

```
## # A tibble: 28,787 × 8
##    relative_time ph1_7_6 ph1_8_2 ph2_7_6 ph2_8_2 ph3_8_2 ph3_7_6 x8   
##            <dbl>   <dbl>   <dbl>   <dbl>   <dbl>   <dbl>   <dbl> <lgl>
##  1           0      7.42    8.01    7.42    7.87    8.10    7.21 NA   
##  2          60.0    7.43    8.03    7.44    7.88    8.12    7.22 NA   
##  3         120.     7.43    8.03    7.44    7.88    8.12    7.22 NA   
##  4         180.     7.43    8.03    7.44    7.88    8.12    7.22 NA   
##  5         240.     7.43    8.03    7.43    7.88    8.12    7.21 NA   
##  6         300.     7.44    8.03    7.43    7.88    8.12    7.21 NA   
##  7         360.     7.44    8.03    7.43    7.88    8.12    7.21 NA   
##  8         420.     7.44    8.03    7.43    7.88    8.11    7.21 NA   
##  9         480.     7.44    8.03    7.43    7.88    8.11    7.20 NA   
## 10         540.     7.44    8.01    7.43    7.87    8.11    7.20 NA   
## # … with 28,777 more rows
```
…
```r
nanno_1
```

```
## # A tibble: 28,787 × 8
##    relative_time ph1_7_6 ph1_8_2 ph2_7_6 ph2_8_2 ph3_8_2 ph3_7_6 x8   
##            <dbl>   <dbl>   <dbl>   <dbl>   <dbl>   <dbl>   <dbl> <lgl>
##  1           0      7.42    8.01    7.42    7.87    8.10    7.21 NA   
##  2          60.0    7.43    8.03    7.44    7.88    8.12    7.22 NA   
##  3         120.     7.43    8.03    7.44    7.88    8.12    7.22 NA   
##  4         180.     7.43    8.03    7.44    7.88    8.12    7.22 NA   
##  5         240.     7.43    8.03    7.43    7.88    8.12    7.21 NA   
##  6         300.     7.44    8.03    7.43    7.88    8.12    7.21 NA   
##  7         360.     7.44    8.03    7.43    7.88    8.12    7.21 NA   
##  8         420.     7.44    8.03    7.43    7.88    8.11    7.21 NA   
##  9         480.     7.44    8.03    7.43    7.88    8.11    7.20 NA   
## 10         540.     7.44    8.01    7.43    7.87    8.11    7.20 NA   
## # … with 28,777 more rows
```
`

```r
nanno_1<-nanno_1[,c(1,2,4,7,3,5,6)]
```

```r
nanno_1
```

```
## # A tibble: 28,787 × 7
##    relative_time ph1_7_6 ph2_7_6 ph3_7_6 ph1_8_2 ph2_8_2 ph3_8_2
##            <dbl>   <dbl>   <dbl>   <dbl>   <dbl>   <dbl>   <dbl>
##  1           0      7.42    7.42    7.21    8.01    7.87    8.10
##  2          60.0    7.43    7.44    7.22    8.03    7.88    8.12
##  3         120.     7.43    7.44    7.22    8.03    7.88    8.12
##  4         180.     7.43    7.44    7.22    8.03    7.88    8.12
##  5         240.     7.43    7.43    7.21    8.03    7.88    8.12
##  6         300.     7.44    7.43    7.21    8.03    7.88    8.12
##  7         360.     7.44    7.43    7.21    8.03    7.88    8.12
##  8         420.     7.44    7.43    7.21    8.03    7.88    8.11
##  9         480.     7.44    7.43    7.20    8.03    7.88    8.11
## 10         540.     7.44    7.43    7.20    8.01    7.87    8.11
## # … with 28,777 more rows
```

```r
nanno_1_long<- nanno_1 %>% 
  pivot_longer( 
    ph1_7_6:ph3_8_2,
    names_to = c("ph_set"),
    values_to = "ph_values")
nanno_1_long
```

```
## # A tibble: 172,722 × 3
##    relative_time ph_set  ph_values
##            <dbl> <chr>       <dbl>
##  1           0   ph1_7_6      7.42
##  2           0   ph2_7_6      7.42
##  3           0   ph3_7_6      7.21
##  4           0   ph1_8_2      8.01
##  5           0   ph2_8_2      7.87
##  6           0   ph3_8_2      8.10
##  7          60.0 ph1_7_6      7.43
##  8          60.0 ph2_7_6      7.44
##  9          60.0 ph3_7_6      7.22
## 10          60.0 ph1_8_2      8.03
## # … with 172,712 more rows
```
…
```r
nanno_2
```

```
## # A tibble: 28,787 × 8
##    relative_time ph_7.6...2 ph_7.6...3 ph_8.2...4 ph_7.6...5 ph_8.2...6
##            <dbl>      <dbl>      <dbl>      <dbl>      <dbl>      <dbl>
##  1           0         6.10       6.23       7.82       6.24       7.95
##  2          60.0       6.11       6.24       7.84       6.25       7.98
##  3         120.        6.12       6.25       7.84       6.26       7.97
##  4         180.        6.13       6.25       7.84       6.26       7.97
##  5         240.        6.13       6.26       7.84       6.26       7.97
##  6         300.        6.14       6.26       7.84       6.26       7.97
##  7         360.        6.15       6.26       7.84       6.27       7.97
##  8         420.        6.15       6.27       7.84       6.27       7.97
##  9         480.        6.16       6.27       7.84       6.27       7.97
## 10         540.        6.16       6.28       7.84       6.27       7.97
## # … with 28,777 more rows, and 2 more variables: ph_8.2...7 <dbl>, ...8 <lgl>
```
…
```r
nanno_2
```

```
## # A tibble: 28,787 × 8
##    relative_time ph1_7_6 ph2_7_6 ph1_8_2 ph3_7_6 ph2_8_2 ph3_8_2 x8   
##            <dbl>   <dbl>   <dbl>   <dbl>   <dbl>   <dbl>   <dbl> <lgl>
##  1           0      6.10    6.23    7.82    6.24    7.95    7.84 NA   
##  2          60.0    6.11    6.24    7.84    6.25    7.98    7.86 NA   
##  3         120.     6.12    6.25    7.84    6.26    7.97    7.86 NA   
##  4         180.     6.13    6.25    7.84    6.26    7.97    7.86 NA   
##  5         240.     6.13    6.26    7.84    6.26    7.97    7.86 NA   
##  6         300.     6.14    6.26    7.84    6.26    7.97    7.86 NA   
##  7         360.     6.15    6.26    7.84    6.27    7.97    7.86 NA   
##  8         420.     6.15    6.27    7.84    6.27    7.97    7.86 NA   
##  9         480.     6.16    6.27    7.84    6.27    7.97    7.86 NA   
## 10         540.     6.16    6.28    7.84    6.27    7.97    7.86 NA   
## # … with 28,777 more rows
```

```r
nanno_2 %>% 
  select(-c(x8))
```

```
## # A tibble: 28,787 × 7
##    relative_time ph1_7_6 ph2_7_6 ph1_8_2 ph3_7_6 ph2_8_2 ph3_8_2
##            <dbl>   <dbl>   <dbl>   <dbl>   <dbl>   <dbl>   <dbl>
##  1           0      6.10    6.23    7.82    6.24    7.95    7.84
##  2          60.0    6.11    6.24    7.84    6.25    7.98    7.86
##  3         120.     6.12    6.25    7.84    6.26    7.97    7.86
##  4         180.     6.13    6.25    7.84    6.26    7.97    7.86
##  5         240.     6.13    6.26    7.84    6.26    7.97    7.86
##  6         300.     6.14    6.26    7.84    6.26    7.97    7.86
##  7         360.     6.15    6.26    7.84    6.27    7.97    7.86
##  8         420.     6.15    6.27    7.84    6.27    7.97    7.86
##  9         480.     6.16    6.27    7.84    6.27    7.97    7.86
## 10         540.     6.16    6.28    7.84    6.27    7.97    7.86
## # … with 28,777 more rows
```

```r
nanno_2<-nanno_2[,c(1,2,3,5,4,6,7)]
```

```r
nanno_2
```

```
## # A tibble: 28,787 × 7
##    relative_time ph1_7_6 ph2_7_6 ph3_7_6 ph1_8_2 ph2_8_2 ph3_8_2
##            <dbl>   <dbl>   <dbl>   <dbl>   <dbl>   <dbl>   <dbl>
##  1           0      6.10    6.23    6.24    7.82    7.95    7.84
##  2          60.0    6.11    6.24    6.25    7.84    7.98    7.86
##  3         120.     6.12    6.25    6.26    7.84    7.97    7.86
##  4         180.     6.13    6.25    6.26    7.84    7.97    7.86
##  5         240.     6.13    6.26    6.26    7.84    7.97    7.86
##  6         300.     6.14    6.26    6.26    7.84    7.97    7.86
##  7         360.     6.15    6.26    6.27    7.84    7.97    7.86
##  8         420.     6.15    6.27    6.27    7.84    7.97    7.86
##  9         480.     6.16    6.27    6.27    7.84    7.97    7.86
## 10         540.     6.16    6.28    6.27    7.84    7.97    7.86
## # … with 28,777 more rows
```

```r
nanno_2_long<-nanno_2 %>% 
  pivot_longer( 
    ph1_7_6:ph3_8_2,
    names_to = c("ph_set"),
    values_to = "ph_values")
nanno_2_long
```

```
## # A tibble: 172,722 × 3
##    relative_time ph_set  ph_values
##            <dbl> <chr>       <dbl>
##  1           0   ph1_7_6      6.10
##  2           0   ph2_7_6      6.23
##  3           0   ph3_7_6      6.24
##  4           0   ph1_8_2      7.82
##  5           0   ph2_8_2      7.95
##  6           0   ph3_8_2      7.84
##  7          60.0 ph1_7_6      6.11
##  8          60.0 ph2_7_6      6.24
##  9          60.0 ph3_7_6      6.25
## 10          60.0 ph1_8_2      7.84
## # … with 172,712 more rows
```
…
